%TF.GenerationSoftware,KiCad,Pcbnew,7.0.9-7.0.9~ubuntu22.04.1*%
%TF.CreationDate,2023-11-24T11:43:59-03:00*%
%TF.ProjectId,dimm_breakout,64696d6d-5f62-4726-9561-6b6f75742e6b,v1.0*%
%TF.SameCoordinates,Original*%
%TF.FileFunction,Drillmap*%
%TF.FilePolarity,Positive*%
%FSLAX45Y45*%
G04 Gerber Fmt 4.5, Leading zero omitted, Abs format (unit mm)*
G04 Created by KiCad (PCBNEW 7.0.9-7.0.9~ubuntu22.04.1) date 2023-11-24 11:43:59*
%MOMM*%
%LPD*%
G01*
G04 APERTURE LIST*
%ADD10C,0.050000*%
%ADD11C,0.200000*%
%ADD12C,0.140000*%
%ADD13C,0.150000*%
G04 APERTURE END LIST*
D10*
X10000000Y-13200000D02*
X10000000Y-3300000D01*
X10000000Y-3300000D02*
X19900000Y-3300000D01*
X19900000Y-3300000D02*
X19900000Y-13200000D01*
X19900000Y-13200000D02*
X10000000Y-13200000D01*
D11*
D12*
X10990000Y-6730000D02*
X11130000Y-6870000D01*
X11130000Y-6730000D02*
X10990000Y-6870000D01*
X10990000Y-10930000D02*
X11130000Y-11070000D01*
X11130000Y-10930000D02*
X10990000Y-11070000D01*
X18790000Y-6730000D02*
X18930000Y-6870000D01*
X18930000Y-6730000D02*
X18790000Y-6870000D01*
X18790000Y-10930000D02*
X18930000Y-11070000D01*
X18930000Y-10930000D02*
X18790000Y-11070000D01*
D13*
X15275000Y-6800000D02*
G75*
G03*
X15275000Y-6800000I-75000J0D01*
G01*
X15275000Y-11000000D02*
G75*
G03*
X15275000Y-11000000I-75000J0D01*
G01*
D11*
X10258277Y-13513984D02*
X10258277Y-13313984D01*
X10258277Y-13313984D02*
X10305896Y-13313984D01*
X10305896Y-13313984D02*
X10334467Y-13323508D01*
X10334467Y-13323508D02*
X10353515Y-13342555D01*
X10353515Y-13342555D02*
X10363039Y-13361603D01*
X10363039Y-13361603D02*
X10372563Y-13399698D01*
X10372563Y-13399698D02*
X10372563Y-13428269D01*
X10372563Y-13428269D02*
X10363039Y-13466365D01*
X10363039Y-13466365D02*
X10353515Y-13485412D01*
X10353515Y-13485412D02*
X10334467Y-13504460D01*
X10334467Y-13504460D02*
X10305896Y-13513984D01*
X10305896Y-13513984D02*
X10258277Y-13513984D01*
X10458277Y-13513984D02*
X10458277Y-13380650D01*
X10458277Y-13418746D02*
X10467801Y-13399698D01*
X10467801Y-13399698D02*
X10477324Y-13390174D01*
X10477324Y-13390174D02*
X10496372Y-13380650D01*
X10496372Y-13380650D02*
X10515420Y-13380650D01*
X10582086Y-13513984D02*
X10582086Y-13380650D01*
X10582086Y-13313984D02*
X10572563Y-13323508D01*
X10572563Y-13323508D02*
X10582086Y-13333031D01*
X10582086Y-13333031D02*
X10591610Y-13323508D01*
X10591610Y-13323508D02*
X10582086Y-13313984D01*
X10582086Y-13313984D02*
X10582086Y-13333031D01*
X10705896Y-13513984D02*
X10686848Y-13504460D01*
X10686848Y-13504460D02*
X10677324Y-13485412D01*
X10677324Y-13485412D02*
X10677324Y-13313984D01*
X10810658Y-13513984D02*
X10791610Y-13504460D01*
X10791610Y-13504460D02*
X10782086Y-13485412D01*
X10782086Y-13485412D02*
X10782086Y-13313984D01*
X11039229Y-13513984D02*
X11039229Y-13313984D01*
X11039229Y-13313984D02*
X11105896Y-13456841D01*
X11105896Y-13456841D02*
X11172563Y-13313984D01*
X11172563Y-13313984D02*
X11172563Y-13513984D01*
X11353515Y-13513984D02*
X11353515Y-13409222D01*
X11353515Y-13409222D02*
X11343991Y-13390174D01*
X11343991Y-13390174D02*
X11324943Y-13380650D01*
X11324943Y-13380650D02*
X11286848Y-13380650D01*
X11286848Y-13380650D02*
X11267801Y-13390174D01*
X11353515Y-13504460D02*
X11334467Y-13513984D01*
X11334467Y-13513984D02*
X11286848Y-13513984D01*
X11286848Y-13513984D02*
X11267801Y-13504460D01*
X11267801Y-13504460D02*
X11258277Y-13485412D01*
X11258277Y-13485412D02*
X11258277Y-13466365D01*
X11258277Y-13466365D02*
X11267801Y-13447317D01*
X11267801Y-13447317D02*
X11286848Y-13437793D01*
X11286848Y-13437793D02*
X11334467Y-13437793D01*
X11334467Y-13437793D02*
X11353515Y-13428269D01*
X11448753Y-13380650D02*
X11448753Y-13580650D01*
X11448753Y-13390174D02*
X11467801Y-13380650D01*
X11467801Y-13380650D02*
X11505896Y-13380650D01*
X11505896Y-13380650D02*
X11524943Y-13390174D01*
X11524943Y-13390174D02*
X11534467Y-13399698D01*
X11534467Y-13399698D02*
X11543991Y-13418746D01*
X11543991Y-13418746D02*
X11543991Y-13475888D01*
X11543991Y-13475888D02*
X11534467Y-13494936D01*
X11534467Y-13494936D02*
X11524943Y-13504460D01*
X11524943Y-13504460D02*
X11505896Y-13513984D01*
X11505896Y-13513984D02*
X11467801Y-13513984D01*
X11467801Y-13513984D02*
X11448753Y-13504460D01*
X11629705Y-13494936D02*
X11639229Y-13504460D01*
X11639229Y-13504460D02*
X11629705Y-13513984D01*
X11629705Y-13513984D02*
X11620182Y-13504460D01*
X11620182Y-13504460D02*
X11629705Y-13494936D01*
X11629705Y-13494936D02*
X11629705Y-13513984D01*
X11629705Y-13390174D02*
X11639229Y-13399698D01*
X11639229Y-13399698D02*
X11629705Y-13409222D01*
X11629705Y-13409222D02*
X11620182Y-13399698D01*
X11620182Y-13399698D02*
X11629705Y-13390174D01*
X11629705Y-13390174D02*
X11629705Y-13409222D01*
D12*
X9857500Y-13772500D02*
X9997500Y-13912500D01*
X9997500Y-13772500D02*
X9857500Y-13912500D01*
D11*
X10363039Y-13933984D02*
X10248753Y-13933984D01*
X10305896Y-13933984D02*
X10305896Y-13733984D01*
X10305896Y-13733984D02*
X10286848Y-13762555D01*
X10286848Y-13762555D02*
X10267801Y-13781603D01*
X10267801Y-13781603D02*
X10248753Y-13791127D01*
X10448753Y-13914936D02*
X10458277Y-13924460D01*
X10458277Y-13924460D02*
X10448753Y-13933984D01*
X10448753Y-13933984D02*
X10439229Y-13924460D01*
X10439229Y-13924460D02*
X10448753Y-13914936D01*
X10448753Y-13914936D02*
X10448753Y-13933984D01*
X10629705Y-13800650D02*
X10629705Y-13933984D01*
X10582086Y-13724460D02*
X10534467Y-13867317D01*
X10534467Y-13867317D02*
X10658277Y-13867317D01*
X10772563Y-13733984D02*
X10791610Y-13733984D01*
X10791610Y-13733984D02*
X10810658Y-13743508D01*
X10810658Y-13743508D02*
X10820182Y-13753031D01*
X10820182Y-13753031D02*
X10829705Y-13772079D01*
X10829705Y-13772079D02*
X10839229Y-13810174D01*
X10839229Y-13810174D02*
X10839229Y-13857793D01*
X10839229Y-13857793D02*
X10829705Y-13895888D01*
X10829705Y-13895888D02*
X10820182Y-13914936D01*
X10820182Y-13914936D02*
X10810658Y-13924460D01*
X10810658Y-13924460D02*
X10791610Y-13933984D01*
X10791610Y-13933984D02*
X10772563Y-13933984D01*
X10772563Y-13933984D02*
X10753515Y-13924460D01*
X10753515Y-13924460D02*
X10743991Y-13914936D01*
X10743991Y-13914936D02*
X10734467Y-13895888D01*
X10734467Y-13895888D02*
X10724944Y-13857793D01*
X10724944Y-13857793D02*
X10724944Y-13810174D01*
X10724944Y-13810174D02*
X10734467Y-13772079D01*
X10734467Y-13772079D02*
X10743991Y-13753031D01*
X10743991Y-13753031D02*
X10753515Y-13743508D01*
X10753515Y-13743508D02*
X10772563Y-13733984D01*
X10963039Y-13733984D02*
X10982086Y-13733984D01*
X10982086Y-13733984D02*
X11001134Y-13743508D01*
X11001134Y-13743508D02*
X11010658Y-13753031D01*
X11010658Y-13753031D02*
X11020182Y-13772079D01*
X11020182Y-13772079D02*
X11029705Y-13810174D01*
X11029705Y-13810174D02*
X11029705Y-13857793D01*
X11029705Y-13857793D02*
X11020182Y-13895888D01*
X11020182Y-13895888D02*
X11010658Y-13914936D01*
X11010658Y-13914936D02*
X11001134Y-13924460D01*
X11001134Y-13924460D02*
X10982086Y-13933984D01*
X10982086Y-13933984D02*
X10963039Y-13933984D01*
X10963039Y-13933984D02*
X10943991Y-13924460D01*
X10943991Y-13924460D02*
X10934467Y-13914936D01*
X10934467Y-13914936D02*
X10924944Y-13895888D01*
X10924944Y-13895888D02*
X10915420Y-13857793D01*
X10915420Y-13857793D02*
X10915420Y-13810174D01*
X10915420Y-13810174D02*
X10924944Y-13772079D01*
X10924944Y-13772079D02*
X10934467Y-13753031D01*
X10934467Y-13753031D02*
X10943991Y-13743508D01*
X10943991Y-13743508D02*
X10963039Y-13733984D01*
X11115420Y-13933984D02*
X11115420Y-13800650D01*
X11115420Y-13819698D02*
X11124944Y-13810174D01*
X11124944Y-13810174D02*
X11143991Y-13800650D01*
X11143991Y-13800650D02*
X11172563Y-13800650D01*
X11172563Y-13800650D02*
X11191610Y-13810174D01*
X11191610Y-13810174D02*
X11201134Y-13829222D01*
X11201134Y-13829222D02*
X11201134Y-13933984D01*
X11201134Y-13829222D02*
X11210658Y-13810174D01*
X11210658Y-13810174D02*
X11229705Y-13800650D01*
X11229705Y-13800650D02*
X11258277Y-13800650D01*
X11258277Y-13800650D02*
X11277324Y-13810174D01*
X11277324Y-13810174D02*
X11286848Y-13829222D01*
X11286848Y-13829222D02*
X11286848Y-13933984D01*
X11382086Y-13933984D02*
X11382086Y-13800650D01*
X11382086Y-13819698D02*
X11391610Y-13810174D01*
X11391610Y-13810174D02*
X11410658Y-13800650D01*
X11410658Y-13800650D02*
X11439229Y-13800650D01*
X11439229Y-13800650D02*
X11458277Y-13810174D01*
X11458277Y-13810174D02*
X11467801Y-13829222D01*
X11467801Y-13829222D02*
X11467801Y-13933984D01*
X11467801Y-13829222D02*
X11477324Y-13810174D01*
X11477324Y-13810174D02*
X11496372Y-13800650D01*
X11496372Y-13800650D02*
X11524943Y-13800650D01*
X11524943Y-13800650D02*
X11543991Y-13810174D01*
X11543991Y-13810174D02*
X11553515Y-13829222D01*
X11553515Y-13829222D02*
X11553515Y-13933984D01*
X11943991Y-13724460D02*
X11772563Y-13981603D01*
X12201134Y-13733984D02*
X12220182Y-13733984D01*
X12220182Y-13733984D02*
X12239229Y-13743508D01*
X12239229Y-13743508D02*
X12248753Y-13753031D01*
X12248753Y-13753031D02*
X12258277Y-13772079D01*
X12258277Y-13772079D02*
X12267801Y-13810174D01*
X12267801Y-13810174D02*
X12267801Y-13857793D01*
X12267801Y-13857793D02*
X12258277Y-13895888D01*
X12258277Y-13895888D02*
X12248753Y-13914936D01*
X12248753Y-13914936D02*
X12239229Y-13924460D01*
X12239229Y-13924460D02*
X12220182Y-13933984D01*
X12220182Y-13933984D02*
X12201134Y-13933984D01*
X12201134Y-13933984D02*
X12182086Y-13924460D01*
X12182086Y-13924460D02*
X12172563Y-13914936D01*
X12172563Y-13914936D02*
X12163039Y-13895888D01*
X12163039Y-13895888D02*
X12153515Y-13857793D01*
X12153515Y-13857793D02*
X12153515Y-13810174D01*
X12153515Y-13810174D02*
X12163039Y-13772079D01*
X12163039Y-13772079D02*
X12172563Y-13753031D01*
X12172563Y-13753031D02*
X12182086Y-13743508D01*
X12182086Y-13743508D02*
X12201134Y-13733984D01*
X12353515Y-13914936D02*
X12363039Y-13924460D01*
X12363039Y-13924460D02*
X12353515Y-13933984D01*
X12353515Y-13933984D02*
X12343991Y-13924460D01*
X12343991Y-13924460D02*
X12353515Y-13914936D01*
X12353515Y-13914936D02*
X12353515Y-13933984D01*
X12486848Y-13733984D02*
X12505896Y-13733984D01*
X12505896Y-13733984D02*
X12524944Y-13743508D01*
X12524944Y-13743508D02*
X12534467Y-13753031D01*
X12534467Y-13753031D02*
X12543991Y-13772079D01*
X12543991Y-13772079D02*
X12553515Y-13810174D01*
X12553515Y-13810174D02*
X12553515Y-13857793D01*
X12553515Y-13857793D02*
X12543991Y-13895888D01*
X12543991Y-13895888D02*
X12534467Y-13914936D01*
X12534467Y-13914936D02*
X12524944Y-13924460D01*
X12524944Y-13924460D02*
X12505896Y-13933984D01*
X12505896Y-13933984D02*
X12486848Y-13933984D01*
X12486848Y-13933984D02*
X12467801Y-13924460D01*
X12467801Y-13924460D02*
X12458277Y-13914936D01*
X12458277Y-13914936D02*
X12448753Y-13895888D01*
X12448753Y-13895888D02*
X12439229Y-13857793D01*
X12439229Y-13857793D02*
X12439229Y-13810174D01*
X12439229Y-13810174D02*
X12448753Y-13772079D01*
X12448753Y-13772079D02*
X12458277Y-13753031D01*
X12458277Y-13753031D02*
X12467801Y-13743508D01*
X12467801Y-13743508D02*
X12486848Y-13733984D01*
X12734467Y-13733984D02*
X12639229Y-13733984D01*
X12639229Y-13733984D02*
X12629706Y-13829222D01*
X12629706Y-13829222D02*
X12639229Y-13819698D01*
X12639229Y-13819698D02*
X12658277Y-13810174D01*
X12658277Y-13810174D02*
X12705896Y-13810174D01*
X12705896Y-13810174D02*
X12724944Y-13819698D01*
X12724944Y-13819698D02*
X12734467Y-13829222D01*
X12734467Y-13829222D02*
X12743991Y-13848269D01*
X12743991Y-13848269D02*
X12743991Y-13895888D01*
X12743991Y-13895888D02*
X12734467Y-13914936D01*
X12734467Y-13914936D02*
X12724944Y-13924460D01*
X12724944Y-13924460D02*
X12705896Y-13933984D01*
X12705896Y-13933984D02*
X12658277Y-13933984D01*
X12658277Y-13933984D02*
X12639229Y-13924460D01*
X12639229Y-13924460D02*
X12629706Y-13914936D01*
X12924944Y-13733984D02*
X12829706Y-13733984D01*
X12829706Y-13733984D02*
X12820182Y-13829222D01*
X12820182Y-13829222D02*
X12829706Y-13819698D01*
X12829706Y-13819698D02*
X12848753Y-13810174D01*
X12848753Y-13810174D02*
X12896372Y-13810174D01*
X12896372Y-13810174D02*
X12915420Y-13819698D01*
X12915420Y-13819698D02*
X12924944Y-13829222D01*
X12924944Y-13829222D02*
X12934467Y-13848269D01*
X12934467Y-13848269D02*
X12934467Y-13895888D01*
X12934467Y-13895888D02*
X12924944Y-13914936D01*
X12924944Y-13914936D02*
X12915420Y-13924460D01*
X12915420Y-13924460D02*
X12896372Y-13933984D01*
X12896372Y-13933984D02*
X12848753Y-13933984D01*
X12848753Y-13933984D02*
X12829706Y-13924460D01*
X12829706Y-13924460D02*
X12820182Y-13914936D01*
X13124944Y-13933984D02*
X13010658Y-13933984D01*
X13067801Y-13933984D02*
X13067801Y-13733984D01*
X13067801Y-13733984D02*
X13048753Y-13762555D01*
X13048753Y-13762555D02*
X13029706Y-13781603D01*
X13029706Y-13781603D02*
X13010658Y-13791127D01*
X13201134Y-13733984D02*
X13201134Y-13772079D01*
X13277325Y-13733984D02*
X13277325Y-13772079D01*
X13572563Y-14010174D02*
X13563039Y-14000650D01*
X13563039Y-14000650D02*
X13543991Y-13972079D01*
X13543991Y-13972079D02*
X13534468Y-13953031D01*
X13534468Y-13953031D02*
X13524944Y-13924460D01*
X13524944Y-13924460D02*
X13515420Y-13876841D01*
X13515420Y-13876841D02*
X13515420Y-13838746D01*
X13515420Y-13838746D02*
X13524944Y-13791127D01*
X13524944Y-13791127D02*
X13534468Y-13762555D01*
X13534468Y-13762555D02*
X13543991Y-13743508D01*
X13543991Y-13743508D02*
X13563039Y-13714936D01*
X13563039Y-13714936D02*
X13572563Y-13705412D01*
X13734468Y-13800650D02*
X13734468Y-13933984D01*
X13686848Y-13724460D02*
X13639229Y-13867317D01*
X13639229Y-13867317D02*
X13763039Y-13867317D01*
X13991610Y-13933984D02*
X13991610Y-13733984D01*
X14077325Y-13933984D02*
X14077325Y-13829222D01*
X14077325Y-13829222D02*
X14067801Y-13810174D01*
X14067801Y-13810174D02*
X14048753Y-13800650D01*
X14048753Y-13800650D02*
X14020182Y-13800650D01*
X14020182Y-13800650D02*
X14001134Y-13810174D01*
X14001134Y-13810174D02*
X13991610Y-13819698D01*
X14201134Y-13933984D02*
X14182087Y-13924460D01*
X14182087Y-13924460D02*
X14172563Y-13914936D01*
X14172563Y-13914936D02*
X14163039Y-13895888D01*
X14163039Y-13895888D02*
X14163039Y-13838746D01*
X14163039Y-13838746D02*
X14172563Y-13819698D01*
X14172563Y-13819698D02*
X14182087Y-13810174D01*
X14182087Y-13810174D02*
X14201134Y-13800650D01*
X14201134Y-13800650D02*
X14229706Y-13800650D01*
X14229706Y-13800650D02*
X14248753Y-13810174D01*
X14248753Y-13810174D02*
X14258277Y-13819698D01*
X14258277Y-13819698D02*
X14267801Y-13838746D01*
X14267801Y-13838746D02*
X14267801Y-13895888D01*
X14267801Y-13895888D02*
X14258277Y-13914936D01*
X14258277Y-13914936D02*
X14248753Y-13924460D01*
X14248753Y-13924460D02*
X14229706Y-13933984D01*
X14229706Y-13933984D02*
X14201134Y-13933984D01*
X14382087Y-13933984D02*
X14363039Y-13924460D01*
X14363039Y-13924460D02*
X14353515Y-13905412D01*
X14353515Y-13905412D02*
X14353515Y-13733984D01*
X14534468Y-13924460D02*
X14515420Y-13933984D01*
X14515420Y-13933984D02*
X14477325Y-13933984D01*
X14477325Y-13933984D02*
X14458277Y-13924460D01*
X14458277Y-13924460D02*
X14448753Y-13905412D01*
X14448753Y-13905412D02*
X14448753Y-13829222D01*
X14448753Y-13829222D02*
X14458277Y-13810174D01*
X14458277Y-13810174D02*
X14477325Y-13800650D01*
X14477325Y-13800650D02*
X14515420Y-13800650D01*
X14515420Y-13800650D02*
X14534468Y-13810174D01*
X14534468Y-13810174D02*
X14543991Y-13829222D01*
X14543991Y-13829222D02*
X14543991Y-13848269D01*
X14543991Y-13848269D02*
X14448753Y-13867317D01*
X14620182Y-13924460D02*
X14639230Y-13933984D01*
X14639230Y-13933984D02*
X14677325Y-13933984D01*
X14677325Y-13933984D02*
X14696372Y-13924460D01*
X14696372Y-13924460D02*
X14705896Y-13905412D01*
X14705896Y-13905412D02*
X14705896Y-13895888D01*
X14705896Y-13895888D02*
X14696372Y-13876841D01*
X14696372Y-13876841D02*
X14677325Y-13867317D01*
X14677325Y-13867317D02*
X14648753Y-13867317D01*
X14648753Y-13867317D02*
X14629706Y-13857793D01*
X14629706Y-13857793D02*
X14620182Y-13838746D01*
X14620182Y-13838746D02*
X14620182Y-13829222D01*
X14620182Y-13829222D02*
X14629706Y-13810174D01*
X14629706Y-13810174D02*
X14648753Y-13800650D01*
X14648753Y-13800650D02*
X14677325Y-13800650D01*
X14677325Y-13800650D02*
X14696372Y-13810174D01*
X14772563Y-14010174D02*
X14782087Y-14000650D01*
X14782087Y-14000650D02*
X14801134Y-13972079D01*
X14801134Y-13972079D02*
X14810658Y-13953031D01*
X14810658Y-13953031D02*
X14820182Y-13924460D01*
X14820182Y-13924460D02*
X14829706Y-13876841D01*
X14829706Y-13876841D02*
X14829706Y-13838746D01*
X14829706Y-13838746D02*
X14820182Y-13791127D01*
X14820182Y-13791127D02*
X14810658Y-13762555D01*
X14810658Y-13762555D02*
X14801134Y-13743508D01*
X14801134Y-13743508D02*
X14782087Y-13714936D01*
X14782087Y-13714936D02*
X14772563Y-13705412D01*
X15134468Y-14010174D02*
X15124944Y-14000650D01*
X15124944Y-14000650D02*
X15105896Y-13972079D01*
X15105896Y-13972079D02*
X15096372Y-13953031D01*
X15096372Y-13953031D02*
X15086849Y-13924460D01*
X15086849Y-13924460D02*
X15077325Y-13876841D01*
X15077325Y-13876841D02*
X15077325Y-13838746D01*
X15077325Y-13838746D02*
X15086849Y-13791127D01*
X15086849Y-13791127D02*
X15096372Y-13762555D01*
X15096372Y-13762555D02*
X15105896Y-13743508D01*
X15105896Y-13743508D02*
X15124944Y-13714936D01*
X15124944Y-13714936D02*
X15134468Y-13705412D01*
X15210658Y-13800650D02*
X15210658Y-13933984D01*
X15210658Y-13819698D02*
X15220182Y-13810174D01*
X15220182Y-13810174D02*
X15239230Y-13800650D01*
X15239230Y-13800650D02*
X15267801Y-13800650D01*
X15267801Y-13800650D02*
X15286849Y-13810174D01*
X15286849Y-13810174D02*
X15296372Y-13829222D01*
X15296372Y-13829222D02*
X15296372Y-13933984D01*
X15420182Y-13933984D02*
X15401134Y-13924460D01*
X15401134Y-13924460D02*
X15391611Y-13914936D01*
X15391611Y-13914936D02*
X15382087Y-13895888D01*
X15382087Y-13895888D02*
X15382087Y-13838746D01*
X15382087Y-13838746D02*
X15391611Y-13819698D01*
X15391611Y-13819698D02*
X15401134Y-13810174D01*
X15401134Y-13810174D02*
X15420182Y-13800650D01*
X15420182Y-13800650D02*
X15448753Y-13800650D01*
X15448753Y-13800650D02*
X15467801Y-13810174D01*
X15467801Y-13810174D02*
X15477325Y-13819698D01*
X15477325Y-13819698D02*
X15486849Y-13838746D01*
X15486849Y-13838746D02*
X15486849Y-13895888D01*
X15486849Y-13895888D02*
X15477325Y-13914936D01*
X15477325Y-13914936D02*
X15467801Y-13924460D01*
X15467801Y-13924460D02*
X15448753Y-13933984D01*
X15448753Y-13933984D02*
X15420182Y-13933984D01*
X15543992Y-13800650D02*
X15620182Y-13800650D01*
X15572563Y-13733984D02*
X15572563Y-13905412D01*
X15572563Y-13905412D02*
X15582087Y-13924460D01*
X15582087Y-13924460D02*
X15601134Y-13933984D01*
X15601134Y-13933984D02*
X15620182Y-13933984D01*
X15839230Y-13800650D02*
X15839230Y-14000650D01*
X15839230Y-13810174D02*
X15858277Y-13800650D01*
X15858277Y-13800650D02*
X15896373Y-13800650D01*
X15896373Y-13800650D02*
X15915420Y-13810174D01*
X15915420Y-13810174D02*
X15924944Y-13819698D01*
X15924944Y-13819698D02*
X15934468Y-13838746D01*
X15934468Y-13838746D02*
X15934468Y-13895888D01*
X15934468Y-13895888D02*
X15924944Y-13914936D01*
X15924944Y-13914936D02*
X15915420Y-13924460D01*
X15915420Y-13924460D02*
X15896373Y-13933984D01*
X15896373Y-13933984D02*
X15858277Y-13933984D01*
X15858277Y-13933984D02*
X15839230Y-13924460D01*
X16048753Y-13933984D02*
X16029706Y-13924460D01*
X16029706Y-13924460D02*
X16020182Y-13905412D01*
X16020182Y-13905412D02*
X16020182Y-13733984D01*
X16210658Y-13933984D02*
X16210658Y-13829222D01*
X16210658Y-13829222D02*
X16201134Y-13810174D01*
X16201134Y-13810174D02*
X16182087Y-13800650D01*
X16182087Y-13800650D02*
X16143992Y-13800650D01*
X16143992Y-13800650D02*
X16124944Y-13810174D01*
X16210658Y-13924460D02*
X16191611Y-13933984D01*
X16191611Y-13933984D02*
X16143992Y-13933984D01*
X16143992Y-13933984D02*
X16124944Y-13924460D01*
X16124944Y-13924460D02*
X16115420Y-13905412D01*
X16115420Y-13905412D02*
X16115420Y-13886365D01*
X16115420Y-13886365D02*
X16124944Y-13867317D01*
X16124944Y-13867317D02*
X16143992Y-13857793D01*
X16143992Y-13857793D02*
X16191611Y-13857793D01*
X16191611Y-13857793D02*
X16210658Y-13848269D01*
X16277325Y-13800650D02*
X16353515Y-13800650D01*
X16305896Y-13733984D02*
X16305896Y-13905412D01*
X16305896Y-13905412D02*
X16315420Y-13924460D01*
X16315420Y-13924460D02*
X16334468Y-13933984D01*
X16334468Y-13933984D02*
X16353515Y-13933984D01*
X16496373Y-13924460D02*
X16477325Y-13933984D01*
X16477325Y-13933984D02*
X16439230Y-13933984D01*
X16439230Y-13933984D02*
X16420182Y-13924460D01*
X16420182Y-13924460D02*
X16410658Y-13905412D01*
X16410658Y-13905412D02*
X16410658Y-13829222D01*
X16410658Y-13829222D02*
X16420182Y-13810174D01*
X16420182Y-13810174D02*
X16439230Y-13800650D01*
X16439230Y-13800650D02*
X16477325Y-13800650D01*
X16477325Y-13800650D02*
X16496373Y-13810174D01*
X16496373Y-13810174D02*
X16505896Y-13829222D01*
X16505896Y-13829222D02*
X16505896Y-13848269D01*
X16505896Y-13848269D02*
X16410658Y-13867317D01*
X16677325Y-13933984D02*
X16677325Y-13733984D01*
X16677325Y-13924460D02*
X16658277Y-13933984D01*
X16658277Y-13933984D02*
X16620182Y-13933984D01*
X16620182Y-13933984D02*
X16601134Y-13924460D01*
X16601134Y-13924460D02*
X16591611Y-13914936D01*
X16591611Y-13914936D02*
X16582087Y-13895888D01*
X16582087Y-13895888D02*
X16582087Y-13838746D01*
X16582087Y-13838746D02*
X16591611Y-13819698D01*
X16591611Y-13819698D02*
X16601134Y-13810174D01*
X16601134Y-13810174D02*
X16620182Y-13800650D01*
X16620182Y-13800650D02*
X16658277Y-13800650D01*
X16658277Y-13800650D02*
X16677325Y-13810174D01*
X16753515Y-14010174D02*
X16763039Y-14000650D01*
X16763039Y-14000650D02*
X16782087Y-13972079D01*
X16782087Y-13972079D02*
X16791611Y-13953031D01*
X16791611Y-13953031D02*
X16801135Y-13924460D01*
X16801135Y-13924460D02*
X16810658Y-13876841D01*
X16810658Y-13876841D02*
X16810658Y-13838746D01*
X16810658Y-13838746D02*
X16801135Y-13791127D01*
X16801135Y-13791127D02*
X16791611Y-13762555D01*
X16791611Y-13762555D02*
X16782087Y-13743508D01*
X16782087Y-13743508D02*
X16763039Y-13714936D01*
X16763039Y-13714936D02*
X16753515Y-13705412D01*
D13*
X9997500Y-14106500D02*
G75*
G03*
X9997500Y-14106500I-75000J0D01*
G01*
D11*
X10363039Y-14197984D02*
X10248753Y-14197984D01*
X10305896Y-14197984D02*
X10305896Y-13997984D01*
X10305896Y-13997984D02*
X10286848Y-14026555D01*
X10286848Y-14026555D02*
X10267801Y-14045603D01*
X10267801Y-14045603D02*
X10248753Y-14055127D01*
X10448753Y-14178936D02*
X10458277Y-14188460D01*
X10458277Y-14188460D02*
X10448753Y-14197984D01*
X10448753Y-14197984D02*
X10439229Y-14188460D01*
X10439229Y-14188460D02*
X10448753Y-14178936D01*
X10448753Y-14178936D02*
X10448753Y-14197984D01*
X10639229Y-13997984D02*
X10543991Y-13997984D01*
X10543991Y-13997984D02*
X10534467Y-14093222D01*
X10534467Y-14093222D02*
X10543991Y-14083698D01*
X10543991Y-14083698D02*
X10563039Y-14074174D01*
X10563039Y-14074174D02*
X10610658Y-14074174D01*
X10610658Y-14074174D02*
X10629705Y-14083698D01*
X10629705Y-14083698D02*
X10639229Y-14093222D01*
X10639229Y-14093222D02*
X10648753Y-14112269D01*
X10648753Y-14112269D02*
X10648753Y-14159888D01*
X10648753Y-14159888D02*
X10639229Y-14178936D01*
X10639229Y-14178936D02*
X10629705Y-14188460D01*
X10629705Y-14188460D02*
X10610658Y-14197984D01*
X10610658Y-14197984D02*
X10563039Y-14197984D01*
X10563039Y-14197984D02*
X10543991Y-14188460D01*
X10543991Y-14188460D02*
X10534467Y-14178936D01*
X10772563Y-13997984D02*
X10791610Y-13997984D01*
X10791610Y-13997984D02*
X10810658Y-14007508D01*
X10810658Y-14007508D02*
X10820182Y-14017031D01*
X10820182Y-14017031D02*
X10829705Y-14036079D01*
X10829705Y-14036079D02*
X10839229Y-14074174D01*
X10839229Y-14074174D02*
X10839229Y-14121793D01*
X10839229Y-14121793D02*
X10829705Y-14159888D01*
X10829705Y-14159888D02*
X10820182Y-14178936D01*
X10820182Y-14178936D02*
X10810658Y-14188460D01*
X10810658Y-14188460D02*
X10791610Y-14197984D01*
X10791610Y-14197984D02*
X10772563Y-14197984D01*
X10772563Y-14197984D02*
X10753515Y-14188460D01*
X10753515Y-14188460D02*
X10743991Y-14178936D01*
X10743991Y-14178936D02*
X10734467Y-14159888D01*
X10734467Y-14159888D02*
X10724944Y-14121793D01*
X10724944Y-14121793D02*
X10724944Y-14074174D01*
X10724944Y-14074174D02*
X10734467Y-14036079D01*
X10734467Y-14036079D02*
X10743991Y-14017031D01*
X10743991Y-14017031D02*
X10753515Y-14007508D01*
X10753515Y-14007508D02*
X10772563Y-13997984D01*
X10963039Y-13997984D02*
X10982086Y-13997984D01*
X10982086Y-13997984D02*
X11001134Y-14007508D01*
X11001134Y-14007508D02*
X11010658Y-14017031D01*
X11010658Y-14017031D02*
X11020182Y-14036079D01*
X11020182Y-14036079D02*
X11029705Y-14074174D01*
X11029705Y-14074174D02*
X11029705Y-14121793D01*
X11029705Y-14121793D02*
X11020182Y-14159888D01*
X11020182Y-14159888D02*
X11010658Y-14178936D01*
X11010658Y-14178936D02*
X11001134Y-14188460D01*
X11001134Y-14188460D02*
X10982086Y-14197984D01*
X10982086Y-14197984D02*
X10963039Y-14197984D01*
X10963039Y-14197984D02*
X10943991Y-14188460D01*
X10943991Y-14188460D02*
X10934467Y-14178936D01*
X10934467Y-14178936D02*
X10924944Y-14159888D01*
X10924944Y-14159888D02*
X10915420Y-14121793D01*
X10915420Y-14121793D02*
X10915420Y-14074174D01*
X10915420Y-14074174D02*
X10924944Y-14036079D01*
X10924944Y-14036079D02*
X10934467Y-14017031D01*
X10934467Y-14017031D02*
X10943991Y-14007508D01*
X10943991Y-14007508D02*
X10963039Y-13997984D01*
X11115420Y-14197984D02*
X11115420Y-14064650D01*
X11115420Y-14083698D02*
X11124944Y-14074174D01*
X11124944Y-14074174D02*
X11143991Y-14064650D01*
X11143991Y-14064650D02*
X11172563Y-14064650D01*
X11172563Y-14064650D02*
X11191610Y-14074174D01*
X11191610Y-14074174D02*
X11201134Y-14093222D01*
X11201134Y-14093222D02*
X11201134Y-14197984D01*
X11201134Y-14093222D02*
X11210658Y-14074174D01*
X11210658Y-14074174D02*
X11229705Y-14064650D01*
X11229705Y-14064650D02*
X11258277Y-14064650D01*
X11258277Y-14064650D02*
X11277324Y-14074174D01*
X11277324Y-14074174D02*
X11286848Y-14093222D01*
X11286848Y-14093222D02*
X11286848Y-14197984D01*
X11382086Y-14197984D02*
X11382086Y-14064650D01*
X11382086Y-14083698D02*
X11391610Y-14074174D01*
X11391610Y-14074174D02*
X11410658Y-14064650D01*
X11410658Y-14064650D02*
X11439229Y-14064650D01*
X11439229Y-14064650D02*
X11458277Y-14074174D01*
X11458277Y-14074174D02*
X11467801Y-14093222D01*
X11467801Y-14093222D02*
X11467801Y-14197984D01*
X11467801Y-14093222D02*
X11477324Y-14074174D01*
X11477324Y-14074174D02*
X11496372Y-14064650D01*
X11496372Y-14064650D02*
X11524943Y-14064650D01*
X11524943Y-14064650D02*
X11543991Y-14074174D01*
X11543991Y-14074174D02*
X11553515Y-14093222D01*
X11553515Y-14093222D02*
X11553515Y-14197984D01*
X11943991Y-13988460D02*
X11772563Y-14245603D01*
X12201134Y-13997984D02*
X12220182Y-13997984D01*
X12220182Y-13997984D02*
X12239229Y-14007508D01*
X12239229Y-14007508D02*
X12248753Y-14017031D01*
X12248753Y-14017031D02*
X12258277Y-14036079D01*
X12258277Y-14036079D02*
X12267801Y-14074174D01*
X12267801Y-14074174D02*
X12267801Y-14121793D01*
X12267801Y-14121793D02*
X12258277Y-14159888D01*
X12258277Y-14159888D02*
X12248753Y-14178936D01*
X12248753Y-14178936D02*
X12239229Y-14188460D01*
X12239229Y-14188460D02*
X12220182Y-14197984D01*
X12220182Y-14197984D02*
X12201134Y-14197984D01*
X12201134Y-14197984D02*
X12182086Y-14188460D01*
X12182086Y-14188460D02*
X12172563Y-14178936D01*
X12172563Y-14178936D02*
X12163039Y-14159888D01*
X12163039Y-14159888D02*
X12153515Y-14121793D01*
X12153515Y-14121793D02*
X12153515Y-14074174D01*
X12153515Y-14074174D02*
X12163039Y-14036079D01*
X12163039Y-14036079D02*
X12172563Y-14017031D01*
X12172563Y-14017031D02*
X12182086Y-14007508D01*
X12182086Y-14007508D02*
X12201134Y-13997984D01*
X12353515Y-14178936D02*
X12363039Y-14188460D01*
X12363039Y-14188460D02*
X12353515Y-14197984D01*
X12353515Y-14197984D02*
X12343991Y-14188460D01*
X12343991Y-14188460D02*
X12353515Y-14178936D01*
X12353515Y-14178936D02*
X12353515Y-14197984D01*
X12486848Y-13997984D02*
X12505896Y-13997984D01*
X12505896Y-13997984D02*
X12524944Y-14007508D01*
X12524944Y-14007508D02*
X12534467Y-14017031D01*
X12534467Y-14017031D02*
X12543991Y-14036079D01*
X12543991Y-14036079D02*
X12553515Y-14074174D01*
X12553515Y-14074174D02*
X12553515Y-14121793D01*
X12553515Y-14121793D02*
X12543991Y-14159888D01*
X12543991Y-14159888D02*
X12534467Y-14178936D01*
X12534467Y-14178936D02*
X12524944Y-14188460D01*
X12524944Y-14188460D02*
X12505896Y-14197984D01*
X12505896Y-14197984D02*
X12486848Y-14197984D01*
X12486848Y-14197984D02*
X12467801Y-14188460D01*
X12467801Y-14188460D02*
X12458277Y-14178936D01*
X12458277Y-14178936D02*
X12448753Y-14159888D01*
X12448753Y-14159888D02*
X12439229Y-14121793D01*
X12439229Y-14121793D02*
X12439229Y-14074174D01*
X12439229Y-14074174D02*
X12448753Y-14036079D01*
X12448753Y-14036079D02*
X12458277Y-14017031D01*
X12458277Y-14017031D02*
X12467801Y-14007508D01*
X12467801Y-14007508D02*
X12486848Y-13997984D01*
X12734467Y-13997984D02*
X12639229Y-13997984D01*
X12639229Y-13997984D02*
X12629706Y-14093222D01*
X12629706Y-14093222D02*
X12639229Y-14083698D01*
X12639229Y-14083698D02*
X12658277Y-14074174D01*
X12658277Y-14074174D02*
X12705896Y-14074174D01*
X12705896Y-14074174D02*
X12724944Y-14083698D01*
X12724944Y-14083698D02*
X12734467Y-14093222D01*
X12734467Y-14093222D02*
X12743991Y-14112269D01*
X12743991Y-14112269D02*
X12743991Y-14159888D01*
X12743991Y-14159888D02*
X12734467Y-14178936D01*
X12734467Y-14178936D02*
X12724944Y-14188460D01*
X12724944Y-14188460D02*
X12705896Y-14197984D01*
X12705896Y-14197984D02*
X12658277Y-14197984D01*
X12658277Y-14197984D02*
X12639229Y-14188460D01*
X12639229Y-14188460D02*
X12629706Y-14178936D01*
X12839229Y-14197984D02*
X12877325Y-14197984D01*
X12877325Y-14197984D02*
X12896372Y-14188460D01*
X12896372Y-14188460D02*
X12905896Y-14178936D01*
X12905896Y-14178936D02*
X12924944Y-14150365D01*
X12924944Y-14150365D02*
X12934467Y-14112269D01*
X12934467Y-14112269D02*
X12934467Y-14036079D01*
X12934467Y-14036079D02*
X12924944Y-14017031D01*
X12924944Y-14017031D02*
X12915420Y-14007508D01*
X12915420Y-14007508D02*
X12896372Y-13997984D01*
X12896372Y-13997984D02*
X12858277Y-13997984D01*
X12858277Y-13997984D02*
X12839229Y-14007508D01*
X12839229Y-14007508D02*
X12829706Y-14017031D01*
X12829706Y-14017031D02*
X12820182Y-14036079D01*
X12820182Y-14036079D02*
X12820182Y-14083698D01*
X12820182Y-14083698D02*
X12829706Y-14102746D01*
X12829706Y-14102746D02*
X12839229Y-14112269D01*
X12839229Y-14112269D02*
X12858277Y-14121793D01*
X12858277Y-14121793D02*
X12896372Y-14121793D01*
X12896372Y-14121793D02*
X12915420Y-14112269D01*
X12915420Y-14112269D02*
X12924944Y-14102746D01*
X12924944Y-14102746D02*
X12934467Y-14083698D01*
X13124944Y-14197984D02*
X13010658Y-14197984D01*
X13067801Y-14197984D02*
X13067801Y-13997984D01*
X13067801Y-13997984D02*
X13048753Y-14026555D01*
X13048753Y-14026555D02*
X13029706Y-14045603D01*
X13029706Y-14045603D02*
X13010658Y-14055127D01*
X13201134Y-13997984D02*
X13201134Y-14036079D01*
X13277325Y-13997984D02*
X13277325Y-14036079D01*
X13572563Y-14274174D02*
X13563039Y-14264650D01*
X13563039Y-14264650D02*
X13543991Y-14236079D01*
X13543991Y-14236079D02*
X13534468Y-14217031D01*
X13534468Y-14217031D02*
X13524944Y-14188460D01*
X13524944Y-14188460D02*
X13515420Y-14140841D01*
X13515420Y-14140841D02*
X13515420Y-14102746D01*
X13515420Y-14102746D02*
X13524944Y-14055127D01*
X13524944Y-14055127D02*
X13534468Y-14026555D01*
X13534468Y-14026555D02*
X13543991Y-14007508D01*
X13543991Y-14007508D02*
X13563039Y-13978936D01*
X13563039Y-13978936D02*
X13572563Y-13969412D01*
X13639229Y-14017031D02*
X13648753Y-14007508D01*
X13648753Y-14007508D02*
X13667801Y-13997984D01*
X13667801Y-13997984D02*
X13715420Y-13997984D01*
X13715420Y-13997984D02*
X13734468Y-14007508D01*
X13734468Y-14007508D02*
X13743991Y-14017031D01*
X13743991Y-14017031D02*
X13753515Y-14036079D01*
X13753515Y-14036079D02*
X13753515Y-14055127D01*
X13753515Y-14055127D02*
X13743991Y-14083698D01*
X13743991Y-14083698D02*
X13629706Y-14197984D01*
X13629706Y-14197984D02*
X13753515Y-14197984D01*
X13991610Y-14197984D02*
X13991610Y-13997984D01*
X14077325Y-14197984D02*
X14077325Y-14093222D01*
X14077325Y-14093222D02*
X14067801Y-14074174D01*
X14067801Y-14074174D02*
X14048753Y-14064650D01*
X14048753Y-14064650D02*
X14020182Y-14064650D01*
X14020182Y-14064650D02*
X14001134Y-14074174D01*
X14001134Y-14074174D02*
X13991610Y-14083698D01*
X14201134Y-14197984D02*
X14182087Y-14188460D01*
X14182087Y-14188460D02*
X14172563Y-14178936D01*
X14172563Y-14178936D02*
X14163039Y-14159888D01*
X14163039Y-14159888D02*
X14163039Y-14102746D01*
X14163039Y-14102746D02*
X14172563Y-14083698D01*
X14172563Y-14083698D02*
X14182087Y-14074174D01*
X14182087Y-14074174D02*
X14201134Y-14064650D01*
X14201134Y-14064650D02*
X14229706Y-14064650D01*
X14229706Y-14064650D02*
X14248753Y-14074174D01*
X14248753Y-14074174D02*
X14258277Y-14083698D01*
X14258277Y-14083698D02*
X14267801Y-14102746D01*
X14267801Y-14102746D02*
X14267801Y-14159888D01*
X14267801Y-14159888D02*
X14258277Y-14178936D01*
X14258277Y-14178936D02*
X14248753Y-14188460D01*
X14248753Y-14188460D02*
X14229706Y-14197984D01*
X14229706Y-14197984D02*
X14201134Y-14197984D01*
X14382087Y-14197984D02*
X14363039Y-14188460D01*
X14363039Y-14188460D02*
X14353515Y-14169412D01*
X14353515Y-14169412D02*
X14353515Y-13997984D01*
X14534468Y-14188460D02*
X14515420Y-14197984D01*
X14515420Y-14197984D02*
X14477325Y-14197984D01*
X14477325Y-14197984D02*
X14458277Y-14188460D01*
X14458277Y-14188460D02*
X14448753Y-14169412D01*
X14448753Y-14169412D02*
X14448753Y-14093222D01*
X14448753Y-14093222D02*
X14458277Y-14074174D01*
X14458277Y-14074174D02*
X14477325Y-14064650D01*
X14477325Y-14064650D02*
X14515420Y-14064650D01*
X14515420Y-14064650D02*
X14534468Y-14074174D01*
X14534468Y-14074174D02*
X14543991Y-14093222D01*
X14543991Y-14093222D02*
X14543991Y-14112269D01*
X14543991Y-14112269D02*
X14448753Y-14131317D01*
X14620182Y-14188460D02*
X14639230Y-14197984D01*
X14639230Y-14197984D02*
X14677325Y-14197984D01*
X14677325Y-14197984D02*
X14696372Y-14188460D01*
X14696372Y-14188460D02*
X14705896Y-14169412D01*
X14705896Y-14169412D02*
X14705896Y-14159888D01*
X14705896Y-14159888D02*
X14696372Y-14140841D01*
X14696372Y-14140841D02*
X14677325Y-14131317D01*
X14677325Y-14131317D02*
X14648753Y-14131317D01*
X14648753Y-14131317D02*
X14629706Y-14121793D01*
X14629706Y-14121793D02*
X14620182Y-14102746D01*
X14620182Y-14102746D02*
X14620182Y-14093222D01*
X14620182Y-14093222D02*
X14629706Y-14074174D01*
X14629706Y-14074174D02*
X14648753Y-14064650D01*
X14648753Y-14064650D02*
X14677325Y-14064650D01*
X14677325Y-14064650D02*
X14696372Y-14074174D01*
X14772563Y-14274174D02*
X14782087Y-14264650D01*
X14782087Y-14264650D02*
X14801134Y-14236079D01*
X14801134Y-14236079D02*
X14810658Y-14217031D01*
X14810658Y-14217031D02*
X14820182Y-14188460D01*
X14820182Y-14188460D02*
X14829706Y-14140841D01*
X14829706Y-14140841D02*
X14829706Y-14102746D01*
X14829706Y-14102746D02*
X14820182Y-14055127D01*
X14820182Y-14055127D02*
X14810658Y-14026555D01*
X14810658Y-14026555D02*
X14801134Y-14007508D01*
X14801134Y-14007508D02*
X14782087Y-13978936D01*
X14782087Y-13978936D02*
X14772563Y-13969412D01*
X15134468Y-14274174D02*
X15124944Y-14264650D01*
X15124944Y-14264650D02*
X15105896Y-14236079D01*
X15105896Y-14236079D02*
X15096372Y-14217031D01*
X15096372Y-14217031D02*
X15086849Y-14188460D01*
X15086849Y-14188460D02*
X15077325Y-14140841D01*
X15077325Y-14140841D02*
X15077325Y-14102746D01*
X15077325Y-14102746D02*
X15086849Y-14055127D01*
X15086849Y-14055127D02*
X15096372Y-14026555D01*
X15096372Y-14026555D02*
X15105896Y-14007508D01*
X15105896Y-14007508D02*
X15124944Y-13978936D01*
X15124944Y-13978936D02*
X15134468Y-13969412D01*
X15210658Y-14064650D02*
X15210658Y-14197984D01*
X15210658Y-14083698D02*
X15220182Y-14074174D01*
X15220182Y-14074174D02*
X15239230Y-14064650D01*
X15239230Y-14064650D02*
X15267801Y-14064650D01*
X15267801Y-14064650D02*
X15286849Y-14074174D01*
X15286849Y-14074174D02*
X15296372Y-14093222D01*
X15296372Y-14093222D02*
X15296372Y-14197984D01*
X15420182Y-14197984D02*
X15401134Y-14188460D01*
X15401134Y-14188460D02*
X15391611Y-14178936D01*
X15391611Y-14178936D02*
X15382087Y-14159888D01*
X15382087Y-14159888D02*
X15382087Y-14102746D01*
X15382087Y-14102746D02*
X15391611Y-14083698D01*
X15391611Y-14083698D02*
X15401134Y-14074174D01*
X15401134Y-14074174D02*
X15420182Y-14064650D01*
X15420182Y-14064650D02*
X15448753Y-14064650D01*
X15448753Y-14064650D02*
X15467801Y-14074174D01*
X15467801Y-14074174D02*
X15477325Y-14083698D01*
X15477325Y-14083698D02*
X15486849Y-14102746D01*
X15486849Y-14102746D02*
X15486849Y-14159888D01*
X15486849Y-14159888D02*
X15477325Y-14178936D01*
X15477325Y-14178936D02*
X15467801Y-14188460D01*
X15467801Y-14188460D02*
X15448753Y-14197984D01*
X15448753Y-14197984D02*
X15420182Y-14197984D01*
X15543992Y-14064650D02*
X15620182Y-14064650D01*
X15572563Y-13997984D02*
X15572563Y-14169412D01*
X15572563Y-14169412D02*
X15582087Y-14188460D01*
X15582087Y-14188460D02*
X15601134Y-14197984D01*
X15601134Y-14197984D02*
X15620182Y-14197984D01*
X15839230Y-14064650D02*
X15839230Y-14264650D01*
X15839230Y-14074174D02*
X15858277Y-14064650D01*
X15858277Y-14064650D02*
X15896373Y-14064650D01*
X15896373Y-14064650D02*
X15915420Y-14074174D01*
X15915420Y-14074174D02*
X15924944Y-14083698D01*
X15924944Y-14083698D02*
X15934468Y-14102746D01*
X15934468Y-14102746D02*
X15934468Y-14159888D01*
X15934468Y-14159888D02*
X15924944Y-14178936D01*
X15924944Y-14178936D02*
X15915420Y-14188460D01*
X15915420Y-14188460D02*
X15896373Y-14197984D01*
X15896373Y-14197984D02*
X15858277Y-14197984D01*
X15858277Y-14197984D02*
X15839230Y-14188460D01*
X16048753Y-14197984D02*
X16029706Y-14188460D01*
X16029706Y-14188460D02*
X16020182Y-14169412D01*
X16020182Y-14169412D02*
X16020182Y-13997984D01*
X16210658Y-14197984D02*
X16210658Y-14093222D01*
X16210658Y-14093222D02*
X16201134Y-14074174D01*
X16201134Y-14074174D02*
X16182087Y-14064650D01*
X16182087Y-14064650D02*
X16143992Y-14064650D01*
X16143992Y-14064650D02*
X16124944Y-14074174D01*
X16210658Y-14188460D02*
X16191611Y-14197984D01*
X16191611Y-14197984D02*
X16143992Y-14197984D01*
X16143992Y-14197984D02*
X16124944Y-14188460D01*
X16124944Y-14188460D02*
X16115420Y-14169412D01*
X16115420Y-14169412D02*
X16115420Y-14150365D01*
X16115420Y-14150365D02*
X16124944Y-14131317D01*
X16124944Y-14131317D02*
X16143992Y-14121793D01*
X16143992Y-14121793D02*
X16191611Y-14121793D01*
X16191611Y-14121793D02*
X16210658Y-14112269D01*
X16277325Y-14064650D02*
X16353515Y-14064650D01*
X16305896Y-13997984D02*
X16305896Y-14169412D01*
X16305896Y-14169412D02*
X16315420Y-14188460D01*
X16315420Y-14188460D02*
X16334468Y-14197984D01*
X16334468Y-14197984D02*
X16353515Y-14197984D01*
X16496373Y-14188460D02*
X16477325Y-14197984D01*
X16477325Y-14197984D02*
X16439230Y-14197984D01*
X16439230Y-14197984D02*
X16420182Y-14188460D01*
X16420182Y-14188460D02*
X16410658Y-14169412D01*
X16410658Y-14169412D02*
X16410658Y-14093222D01*
X16410658Y-14093222D02*
X16420182Y-14074174D01*
X16420182Y-14074174D02*
X16439230Y-14064650D01*
X16439230Y-14064650D02*
X16477325Y-14064650D01*
X16477325Y-14064650D02*
X16496373Y-14074174D01*
X16496373Y-14074174D02*
X16505896Y-14093222D01*
X16505896Y-14093222D02*
X16505896Y-14112269D01*
X16505896Y-14112269D02*
X16410658Y-14131317D01*
X16677325Y-14197984D02*
X16677325Y-13997984D01*
X16677325Y-14188460D02*
X16658277Y-14197984D01*
X16658277Y-14197984D02*
X16620182Y-14197984D01*
X16620182Y-14197984D02*
X16601134Y-14188460D01*
X16601134Y-14188460D02*
X16591611Y-14178936D01*
X16591611Y-14178936D02*
X16582087Y-14159888D01*
X16582087Y-14159888D02*
X16582087Y-14102746D01*
X16582087Y-14102746D02*
X16591611Y-14083698D01*
X16591611Y-14083698D02*
X16601134Y-14074174D01*
X16601134Y-14074174D02*
X16620182Y-14064650D01*
X16620182Y-14064650D02*
X16658277Y-14064650D01*
X16658277Y-14064650D02*
X16677325Y-14074174D01*
X16753515Y-14274174D02*
X16763039Y-14264650D01*
X16763039Y-14264650D02*
X16782087Y-14236079D01*
X16782087Y-14236079D02*
X16791611Y-14217031D01*
X16791611Y-14217031D02*
X16801135Y-14188460D01*
X16801135Y-14188460D02*
X16810658Y-14140841D01*
X16810658Y-14140841D02*
X16810658Y-14102746D01*
X16810658Y-14102746D02*
X16801135Y-14055127D01*
X16801135Y-14055127D02*
X16791611Y-14026555D01*
X16791611Y-14026555D02*
X16782087Y-14007508D01*
X16782087Y-14007508D02*
X16763039Y-13978936D01*
X16763039Y-13978936D02*
X16753515Y-13969412D01*
M02*
