%TF.GenerationSoftware,KiCad,Pcbnew,5.1.7-a382d34a8~88~ubuntu16.04.1*%
%TF.CreationDate,2021-06-22T15:16:14+02:00*%
%TF.ProjectId,dimm_breakout,64696d6d-5f62-4726-9561-6b6f75742e6b,v1.0*%
%TF.SameCoordinates,Original*%
%TF.FileFunction,Plated,1,4,PTH,Drill*%
%TF.FilePolarity,Positive*%
%FSLAX46Y46*%
G04 Gerber Fmt 4.6, Leading zero omitted, Abs format (unit mm)*
G04 Created by KiCad (PCBNEW 5.1.7-a382d34a8~88~ubuntu16.04.1) date 2021-06-22 15:16:14*
%MOMM*%
%LPD*%
G01*
G04 APERTURE LIST*
%TA.AperFunction,ViaDrill*%
%ADD10C,0.200000*%
%TD*%
%TA.AperFunction,ComponentDrill*%
%ADD11C,0.650000*%
%TD*%
%TA.AperFunction,ComponentDrill*%
%ADD12C,1.000000*%
%TD*%
G04 APERTURE END LIST*
D10*
X101000000Y-34000000D03*
X101000000Y-39000000D03*
X101000000Y-44000000D03*
X101000000Y-49000000D03*
X101000000Y-54000000D03*
X101000000Y-59000000D03*
X101000000Y-64000000D03*
X101000000Y-74000000D03*
X101000000Y-79000000D03*
X101000000Y-84000000D03*
X101000000Y-89000000D03*
X101000000Y-94000000D03*
X101000000Y-99000000D03*
X101000000Y-104000000D03*
X101000000Y-114000000D03*
X101000000Y-119000000D03*
X101000000Y-124000000D03*
X101000000Y-129000000D03*
X105000000Y-131000000D03*
X106000000Y-34000000D03*
X110000000Y-131000000D03*
X111000000Y-34000000D03*
X111372174Y-113459238D03*
X111400000Y-98500000D03*
X111499994Y-103500000D03*
X111500000Y-64500000D03*
X111500000Y-92500000D03*
X111500000Y-94500000D03*
X111500000Y-96500000D03*
X111500000Y-97500012D03*
X111500000Y-99500000D03*
X111500000Y-100500000D03*
X111500000Y-101500000D03*
X111500000Y-102500000D03*
X111500000Y-104500000D03*
X111500000Y-105499992D03*
X111500000Y-106500000D03*
X111550010Y-91500006D03*
X111550010Y-93500000D03*
X111550010Y-95500000D03*
X111849990Y-71500000D03*
X112400000Y-64600000D03*
X112400000Y-114800000D03*
X113000000Y-64200000D03*
X113000000Y-114400000D03*
X113500000Y-78500000D03*
X113500000Y-79500000D03*
X113500000Y-80500000D03*
X113500000Y-81500000D03*
X113500000Y-82500000D03*
X113500000Y-83500000D03*
X113500000Y-84500000D03*
X113500000Y-85500000D03*
X113500000Y-86514313D03*
X113500000Y-87500000D03*
X113500000Y-88500000D03*
X113500000Y-89500000D03*
X113500000Y-90500000D03*
X113500000Y-91500000D03*
X113500000Y-92500000D03*
X113560468Y-114032263D03*
X113583344Y-63805552D03*
X114060686Y-113617176D03*
X114200000Y-63400000D03*
X114800000Y-64600000D03*
X114800000Y-114800000D03*
X115000000Y-131000000D03*
X115400000Y-64200000D03*
X115400000Y-114400000D03*
X116000000Y-34000000D03*
X116000000Y-63800000D03*
X116000000Y-114000000D03*
X116549912Y-77194693D03*
X116600000Y-63400000D03*
X116600000Y-113600000D03*
X116999923Y-75500000D03*
X117065444Y-87065438D03*
X117200000Y-64600000D03*
X117200000Y-114800000D03*
X117319310Y-85476998D03*
X117383645Y-79616354D03*
X117500000Y-74500000D03*
X117500000Y-80500000D03*
X117500000Y-81500000D03*
X117500000Y-82500000D03*
X117500000Y-83500000D03*
X117500000Y-84500000D03*
X117500000Y-86500000D03*
X117800000Y-64200000D03*
X117800000Y-114400000D03*
X118030457Y-106995567D03*
X118400000Y-113300000D03*
X118499988Y-71500000D03*
X118500000Y-64500000D03*
X118733824Y-102571203D03*
X118853062Y-104485028D03*
X118902306Y-100101854D03*
X119000000Y-63800000D03*
X119000000Y-114000000D03*
X119572656Y-106452721D03*
X119600000Y-63400000D03*
X119600000Y-113600000D03*
X119899978Y-76506919D03*
X120000000Y-131000000D03*
X120200000Y-64600000D03*
X120200000Y-114800000D03*
X120449990Y-75000000D03*
X120800000Y-64200000D03*
X120800000Y-114400000D03*
X121000000Y-34000000D03*
X121124845Y-101500121D03*
X121305312Y-98000000D03*
X121350010Y-73691252D03*
X121352351Y-99699230D03*
X121400000Y-63800000D03*
X121400000Y-114000000D03*
X121450000Y-96000000D03*
X121450000Y-97000000D03*
X121500000Y-91500000D03*
X121500000Y-92500000D03*
X121500000Y-94000000D03*
X122000000Y-63400000D03*
X122000000Y-72500000D03*
X122000000Y-95000000D03*
X122000000Y-113600000D03*
X122466411Y-64633397D03*
X122600000Y-114800000D03*
X122902331Y-100156446D03*
X123167391Y-98603087D03*
X123200000Y-64200000D03*
X123200000Y-114400000D03*
X123571318Y-96990735D03*
X123800000Y-63800000D03*
X123800000Y-114000000D03*
X124121328Y-94917754D03*
X124400000Y-63400000D03*
X124400000Y-113600000D03*
X124474937Y-103399057D03*
X124889281Y-104512075D03*
X124924930Y-101655567D03*
X124939253Y-106950331D03*
X124962865Y-105363492D03*
X125000000Y-64800000D03*
X125000000Y-113300000D03*
X125000000Y-131000000D03*
X125000008Y-71500000D03*
X125160770Y-106339229D03*
X125352375Y-100552225D03*
X125600000Y-64400000D03*
X125600000Y-114800000D03*
X125617435Y-98705153D03*
X126000000Y-34000000D03*
X126021362Y-97118708D03*
X126200000Y-64000000D03*
X126200000Y-114400000D03*
X126800000Y-63600000D03*
X126800000Y-114000000D03*
X127400000Y-63200000D03*
X127400000Y-113600000D03*
X127749968Y-105651916D03*
X128000000Y-64400000D03*
X128000000Y-114800000D03*
X128056632Y-103784036D03*
X128214791Y-103153559D03*
X128333400Y-102472249D03*
X128517490Y-98500000D03*
X128600000Y-64000000D03*
X128600000Y-97750000D03*
X128600000Y-114400000D03*
X128725000Y-99975000D03*
X128725000Y-101850000D03*
X128775000Y-100950000D03*
X129000000Y-90000000D03*
X129000000Y-92000000D03*
X129000000Y-94000000D03*
X129000000Y-96000000D03*
X129150000Y-97100000D03*
X129200000Y-63600000D03*
X129200000Y-114000000D03*
X129800000Y-63200000D03*
X129800000Y-113600000D03*
X130000000Y-131000000D03*
X130400000Y-63600000D03*
X130400000Y-114800000D03*
X130449990Y-105500000D03*
X130750305Y-79815047D03*
X131000000Y-34000000D03*
X131000000Y-63200000D03*
X131000000Y-114400000D03*
X131275427Y-105452395D03*
X131400133Y-79799553D03*
X131499979Y-106700000D03*
X131500000Y-64500008D03*
X131500000Y-71500000D03*
X131600000Y-113300000D03*
X131649902Y-103874340D03*
X131800000Y-91600000D03*
X131800000Y-92600000D03*
X131800000Y-93600000D03*
X131800000Y-94400000D03*
X131800000Y-95400000D03*
X131800000Y-96400000D03*
X131800000Y-97400000D03*
X132133478Y-102968979D03*
X132199901Y-78472614D03*
X132200000Y-64400000D03*
X132200000Y-114000000D03*
X132225663Y-98879364D03*
X132449990Y-77000000D03*
X132500002Y-97650000D03*
X132583497Y-100493866D03*
X132615269Y-101587194D03*
X132800000Y-64000000D03*
X132800000Y-113600000D03*
X133400000Y-63600000D03*
X133400000Y-114800000D03*
X134000000Y-63200000D03*
X134000000Y-114400000D03*
X134600000Y-64400000D03*
X134600000Y-114000000D03*
X134750227Y-80975982D03*
X134838262Y-80161738D03*
X135000000Y-131000000D03*
X135000009Y-83980548D03*
X135033542Y-100500000D03*
X135099957Y-78965266D03*
X135169994Y-113559992D03*
X135200000Y-64000000D03*
X135400000Y-74800000D03*
X135400000Y-75600000D03*
X135400000Y-76500000D03*
X135476491Y-77600011D03*
X135483553Y-99496992D03*
X135585355Y-83572353D03*
X135800000Y-63600000D03*
X135800000Y-114800000D03*
X135850069Y-98502789D03*
X136000000Y-34000000D03*
X136037475Y-84522413D03*
X136350077Y-96790022D03*
X136395979Y-63197105D03*
X136533589Y-114366603D03*
X136923506Y-63576882D03*
X137000000Y-84500000D03*
X137040009Y-83610282D03*
X137083599Y-113964919D03*
X137600000Y-63200000D03*
X137633609Y-113589793D03*
X137700000Y-85100000D03*
X137956591Y-101100011D03*
X138000000Y-71500000D03*
X138000000Y-100000000D03*
X138200000Y-106700000D03*
X138200007Y-64700007D03*
X138212276Y-113293719D03*
X138511875Y-105298765D03*
X138800000Y-64200000D03*
X138800000Y-114800000D03*
X139400000Y-63800000D03*
X139400000Y-114400000D03*
X139500000Y-105000000D03*
X139750000Y-56750000D03*
X139750000Y-57750000D03*
X140000000Y-64500000D03*
X140000000Y-83150000D03*
X140000000Y-84550000D03*
X140000000Y-106700000D03*
X140000000Y-114000000D03*
X140000000Y-131000000D03*
X140575000Y-105750000D03*
X140600000Y-113600000D03*
X141000000Y-34000000D03*
X141200000Y-114800000D03*
X141225000Y-105750000D03*
X141250000Y-58750000D03*
X141425000Y-59500000D03*
X141750000Y-100500000D03*
X141750000Y-105000000D03*
X141800000Y-63800000D03*
X141800000Y-103200000D03*
X141800000Y-106700000D03*
X141800000Y-114400000D03*
X142075000Y-59500000D03*
X142250000Y-55750000D03*
X142250000Y-58750000D03*
X142375000Y-104250000D03*
X142400000Y-114000000D03*
X142675000Y-56500000D03*
X143000000Y-113600000D03*
X143025000Y-104250000D03*
X143325000Y-56500000D03*
X143499901Y-106859884D03*
X143500000Y-100500000D03*
X143530339Y-64530339D03*
X143600000Y-103200000D03*
X143600000Y-114800000D03*
X143750000Y-55750000D03*
X143750000Y-79250000D03*
X143750000Y-80750000D03*
X143750000Y-82250000D03*
X143949989Y-83000000D03*
X143999979Y-78500000D03*
X144000000Y-80000000D03*
X144000000Y-81500000D03*
X144200000Y-114400000D03*
X144800000Y-71599994D03*
X144800000Y-72600000D03*
X144849990Y-113388916D03*
X145000000Y-131000000D03*
X145250099Y-105936845D03*
X145499934Y-106781681D03*
X145500000Y-64500000D03*
X146000000Y-34000000D03*
X146000000Y-114400000D03*
X146150043Y-102000000D03*
X146150043Y-103496814D03*
X146175477Y-104500000D03*
X146386089Y-100663921D03*
X146550010Y-71386153D03*
X146550010Y-72200000D03*
X146550054Y-99000000D03*
X146600000Y-113300000D03*
X146650000Y-100000000D03*
X147000000Y-64500000D03*
X147400000Y-100800000D03*
X147499967Y-106539439D03*
X147800000Y-64000000D03*
X147800000Y-114400000D03*
X148400000Y-63600000D03*
X148400000Y-71500000D03*
X148400000Y-113300000D03*
X148634902Y-105151490D03*
X149000000Y-64500000D03*
X149000000Y-114000000D03*
X149049990Y-106500000D03*
X149202649Y-104835004D03*
X149500000Y-63000000D03*
X149550010Y-98000000D03*
X149550010Y-99000000D03*
X149600000Y-64000000D03*
X149600000Y-113600000D03*
X149886089Y-100113911D03*
X150000000Y-117500000D03*
X150000000Y-131000000D03*
X150261895Y-101360076D03*
X150350000Y-100700000D03*
X150500000Y-94750000D03*
X150500000Y-116500000D03*
X150950000Y-93350000D03*
X151000000Y-34000000D03*
X151000000Y-117500000D03*
X151350000Y-92100000D03*
X151500000Y-116500000D03*
X151605199Y-86302966D03*
X151711782Y-84946383D03*
X151745308Y-89162858D03*
X151750000Y-90850000D03*
X151750000Y-94000000D03*
X151750000Y-95750000D03*
X151762506Y-87645659D03*
X151800000Y-80600000D03*
X151800000Y-81600000D03*
X151800000Y-82800000D03*
X152000000Y-75500000D03*
X152000000Y-76500000D03*
X152000000Y-77500000D03*
X152000000Y-78500000D03*
X152000000Y-79500000D03*
X152000000Y-102800000D03*
X152000000Y-104400000D03*
X152000000Y-117500000D03*
X152250000Y-92750000D03*
X152450000Y-91500000D03*
X152500000Y-76000000D03*
X152500000Y-77000000D03*
X152500000Y-78000000D03*
X152500000Y-79000000D03*
X152500000Y-85750000D03*
X152500000Y-87000000D03*
X152500000Y-88500000D03*
X152500000Y-90000000D03*
X152500000Y-116500000D03*
X153000000Y-75500000D03*
X153000000Y-76500000D03*
X153000000Y-77500000D03*
X153000000Y-78500000D03*
X153000000Y-79500000D03*
X153000000Y-80600000D03*
X153000000Y-81600000D03*
X153000000Y-82800000D03*
X153000000Y-117500000D03*
X153200000Y-102250000D03*
X153200000Y-103500000D03*
X153200000Y-104800000D03*
X153500000Y-116500000D03*
X153800000Y-72800000D03*
X153800000Y-115000000D03*
X154000000Y-62000000D03*
X154000000Y-117500000D03*
X154275011Y-72200000D03*
X154400000Y-114200000D03*
X154500000Y-116500000D03*
X154557769Y-63220064D03*
X155000000Y-74500000D03*
X155000000Y-75500000D03*
X155000000Y-76500000D03*
X155000000Y-77500000D03*
X155000000Y-78500000D03*
X155000000Y-79500000D03*
X155000000Y-80600000D03*
X155000000Y-81600000D03*
X155000000Y-95400000D03*
X155000000Y-97400000D03*
X155000000Y-106700000D03*
X155000000Y-117500000D03*
X155000000Y-131000000D03*
X155000006Y-64500000D03*
X155443401Y-72712379D03*
X155450008Y-63600000D03*
X155500000Y-116500000D03*
X155600000Y-114600000D03*
X155825034Y-72072231D03*
X156000000Y-34000000D03*
X156200000Y-63200000D03*
X156200000Y-114200000D03*
X156800000Y-64400000D03*
X156800000Y-77000000D03*
X156800000Y-78000000D03*
X156800000Y-82000000D03*
X156800000Y-93600000D03*
X156800000Y-95800000D03*
X156800000Y-106700000D03*
X156921093Y-73616542D03*
X157000000Y-120000000D03*
X157125870Y-72999629D03*
X157400000Y-63600000D03*
X157400000Y-75600000D03*
X157400000Y-114600000D03*
X158000000Y-63200000D03*
X158000000Y-114200000D03*
X158188252Y-74500000D03*
X158500000Y-116500000D03*
X158600000Y-64500000D03*
X158600000Y-106700000D03*
X159000000Y-117500000D03*
X159079346Y-72334896D03*
X159200000Y-63600000D03*
X159200000Y-114600000D03*
X159500000Y-116500000D03*
X159800000Y-63200000D03*
X159800000Y-114200000D03*
X160000000Y-117500000D03*
X160000000Y-131000000D03*
X160268458Y-105531542D03*
X160400000Y-106700000D03*
X160400002Y-64400000D03*
X160500000Y-116500000D03*
X160523475Y-72083038D03*
X161000000Y-34000000D03*
X161000000Y-63600000D03*
X161000000Y-114600000D03*
X161000000Y-117500000D03*
X161099957Y-71782731D03*
X161500000Y-116500000D03*
X161600000Y-63200000D03*
X161600000Y-114200000D03*
X161601573Y-104000000D03*
X161700087Y-73931906D03*
X162000000Y-117500000D03*
X162077100Y-73402409D03*
X162200000Y-64400000D03*
X162200000Y-105400000D03*
X162200000Y-106700000D03*
X162500000Y-116500000D03*
X162800000Y-63600000D03*
X162800000Y-114600000D03*
X163000000Y-117500000D03*
X163151596Y-104014371D03*
X163400000Y-63200000D03*
X163400000Y-114200000D03*
X163500000Y-116500000D03*
X163589909Y-72687923D03*
X163827309Y-105572028D03*
X164000000Y-64400000D03*
X164000000Y-106700000D03*
X164000000Y-117500000D03*
X164500000Y-116500000D03*
X164580757Y-72141410D03*
X164600000Y-63600000D03*
X164600000Y-114600000D03*
X165000000Y-117500000D03*
X165000000Y-131000000D03*
X165200000Y-63200000D03*
X165200000Y-114200000D03*
X165500000Y-116500000D03*
X165601641Y-104481702D03*
X165743996Y-73398494D03*
X165756462Y-64400000D03*
X165800000Y-106700000D03*
X165849990Y-105510067D03*
X166000000Y-34000000D03*
X166000000Y-117500000D03*
X166400000Y-63600000D03*
X166400000Y-114600000D03*
X166500021Y-72546204D03*
X166650208Y-81627717D03*
X167000000Y-63200000D03*
X167000000Y-114200000D03*
X167100219Y-80435272D03*
X167306485Y-64540631D03*
X167500000Y-71500000D03*
X167550230Y-78762810D03*
X167600000Y-99800000D03*
X167600000Y-101000000D03*
X167600000Y-102000000D03*
X167600000Y-103000000D03*
X167600000Y-106700000D03*
X167600000Y-113300000D03*
X167649990Y-104526144D03*
X167941954Y-64403902D03*
X168100240Y-78007674D03*
X168200000Y-114400000D03*
X168391965Y-63931553D03*
X168650242Y-76291687D03*
X168800000Y-114000000D03*
X169100253Y-75742004D03*
X169237900Y-63335629D03*
X169400000Y-113600000D03*
X169650000Y-91250000D03*
X169650000Y-92250000D03*
X169650000Y-93250000D03*
X169650000Y-94250000D03*
X169700000Y-77000000D03*
X169700000Y-78000000D03*
X169700000Y-79000000D03*
X169700000Y-80000000D03*
X169941987Y-64251123D03*
X170000000Y-63200000D03*
X170000000Y-75499986D03*
X170000000Y-114800000D03*
X170000000Y-131000000D03*
X170399986Y-63789872D03*
X170600000Y-114400000D03*
X170800010Y-94149194D03*
X170800010Y-95083085D03*
X170849987Y-63000000D03*
X171000000Y-34000000D03*
X171200000Y-114000000D03*
X171250000Y-61000000D03*
X171500000Y-63000000D03*
X171500000Y-64218585D03*
X171524389Y-95903261D03*
X171708803Y-98400000D03*
X171734422Y-71324495D03*
X171774672Y-96974674D03*
X171800000Y-113600000D03*
X171949970Y-101088118D03*
X172000000Y-62500004D03*
X172000000Y-99250000D03*
X172109535Y-100150721D03*
X172350241Y-105018134D03*
X172400000Y-106700000D03*
X172400000Y-113300000D03*
X172500000Y-115000000D03*
X172500000Y-118000000D03*
X172561084Y-114161084D03*
X173049990Y-105000000D03*
X173070664Y-72216500D03*
X173500000Y-115000000D03*
X173500000Y-118000000D03*
X173800000Y-61000000D03*
X173800000Y-115600000D03*
X174175000Y-73000000D03*
X174175000Y-114250000D03*
X174200000Y-63200000D03*
X174200000Y-64400000D03*
X174200000Y-100250000D03*
X174200000Y-101400000D03*
X174238916Y-106738916D03*
X174249969Y-98800000D03*
X174500000Y-73750000D03*
X174638025Y-74893048D03*
X174675000Y-61000000D03*
X174825000Y-73000000D03*
X174825000Y-114250000D03*
X175000000Y-124000000D03*
X175000000Y-131000000D03*
X175078187Y-74414746D03*
X175325000Y-61000000D03*
X175449990Y-105611084D03*
X175450000Y-72200000D03*
X175450000Y-113300000D03*
X175499945Y-71500000D03*
X175699825Y-96690002D03*
X176000000Y-34000000D03*
X176000000Y-94500000D03*
X176000000Y-95500000D03*
X176000000Y-115000000D03*
X176188048Y-75108793D03*
X176192343Y-74106588D03*
X176200000Y-61000000D03*
X176200000Y-62400004D03*
X176309148Y-76663638D03*
X176500000Y-60000000D03*
X176500000Y-124000000D03*
X176600000Y-114400000D03*
X176650153Y-77891504D03*
X176846246Y-63834687D03*
X177000000Y-62500000D03*
X177200000Y-113800000D03*
X177800000Y-63000000D03*
X177800000Y-114400000D03*
X177946257Y-63715190D03*
X178000000Y-49000000D03*
X178000000Y-51000000D03*
X178000000Y-53000000D03*
X178000000Y-55000000D03*
X178000000Y-57000000D03*
X178000000Y-59000000D03*
X178000000Y-61750000D03*
X178000000Y-124000000D03*
X178400000Y-71600000D03*
X178400000Y-113300000D03*
X178564597Y-106600011D03*
X178638093Y-75376083D03*
X178700050Y-101924945D03*
X178749968Y-102573036D03*
X178749968Y-103590059D03*
X178749968Y-104399989D03*
X178750000Y-105500000D03*
X179000000Y-63000000D03*
X179000000Y-64400000D03*
X179000000Y-114600000D03*
X179500000Y-124000000D03*
X179508056Y-114154028D03*
X179512895Y-76682766D03*
X179600000Y-63600000D03*
X180000000Y-51000000D03*
X180000000Y-53000000D03*
X180000000Y-55000000D03*
X180000000Y-57000000D03*
X180000000Y-59000000D03*
X180000000Y-131000000D03*
X180150000Y-79000000D03*
X180200000Y-63200000D03*
X180200000Y-80000000D03*
X180200000Y-114600000D03*
X180500000Y-43500000D03*
X180500000Y-44500000D03*
X180500000Y-45500000D03*
X180500000Y-46500000D03*
X180548337Y-61449990D03*
X180746621Y-105865793D03*
X180800000Y-64400000D03*
X180800000Y-71600000D03*
X180800000Y-81000000D03*
X180800000Y-105000000D03*
X180800000Y-106700000D03*
X180800000Y-113300000D03*
X180849990Y-82200000D03*
X181000000Y-34000000D03*
X181000000Y-79000000D03*
X181150263Y-83400000D03*
X181250000Y-84500000D03*
X181250000Y-85500000D03*
X181250000Y-86500000D03*
X181400000Y-120600000D03*
X181500000Y-43500000D03*
X181500000Y-44500000D03*
X181500000Y-45500000D03*
X181500000Y-46500000D03*
X181500000Y-75500000D03*
X181500000Y-81500000D03*
X181989410Y-60999979D03*
X182000000Y-51000000D03*
X182000000Y-55000000D03*
X182000000Y-57000000D03*
X182000000Y-59000000D03*
X182000000Y-74500000D03*
X182000000Y-82750000D03*
X182000000Y-90200000D03*
X182050000Y-120050000D03*
X182258861Y-105695926D03*
X182500000Y-43500000D03*
X182500000Y-44500000D03*
X182500000Y-45500000D03*
X182500000Y-46500000D03*
X182600000Y-64400000D03*
X182600000Y-71600000D03*
X182600000Y-113300000D03*
X183200000Y-63600000D03*
X183200000Y-114600000D03*
X183450000Y-100700000D03*
X183472901Y-99072901D03*
X183481855Y-100018145D03*
X183500000Y-95750000D03*
X183500000Y-96500000D03*
X183500000Y-98250000D03*
X183540694Y-97581389D03*
X183599970Y-103100404D03*
X183800000Y-63200000D03*
X183800000Y-114200000D03*
X184000000Y-51000000D03*
X184000000Y-55000000D03*
X184000000Y-57000000D03*
X184000000Y-59000000D03*
X184149980Y-103671700D03*
X184400000Y-63600000D03*
X184400000Y-114600000D03*
X184699984Y-104378681D03*
X185000000Y-63200000D03*
X185000000Y-114200000D03*
X185000000Y-131000000D03*
X185481888Y-100564982D03*
X185499979Y-64400000D03*
X185499979Y-71600000D03*
X185550010Y-106700006D03*
X185600000Y-113300000D03*
X185758266Y-105324677D03*
X185949990Y-63600000D03*
X186000000Y-34000000D03*
X186000000Y-51000000D03*
X186000000Y-53000000D03*
X186000000Y-55000000D03*
X186000000Y-57000000D03*
X186000000Y-59000000D03*
X186000000Y-114500000D03*
X186000000Y-119500000D03*
X186800000Y-63200000D03*
X186900000Y-121500000D03*
X187000000Y-101200000D03*
X187100000Y-114500000D03*
X187400000Y-38600000D03*
X187400000Y-40400000D03*
X187400000Y-64400000D03*
X187400000Y-113300000D03*
X187449990Y-106700000D03*
X187500000Y-71500000D03*
X187500000Y-77500000D03*
X187500000Y-84500000D03*
X187500000Y-119500000D03*
X187534428Y-100442620D03*
X187553164Y-105315783D03*
X188000000Y-51000000D03*
X188000000Y-53000000D03*
X188000000Y-55000000D03*
X188000000Y-57000000D03*
X188000000Y-59000000D03*
X188000000Y-99175000D03*
X188000000Y-99825000D03*
X188250000Y-96000000D03*
X188400000Y-98600000D03*
X188400000Y-100400000D03*
X189250000Y-96000000D03*
X190000000Y-51000000D03*
X190000000Y-53000000D03*
X190000000Y-55000000D03*
X190000000Y-57000000D03*
X190000000Y-59000000D03*
X190000000Y-131000000D03*
X191000000Y-34000000D03*
X191900000Y-101100000D03*
X192000000Y-51000000D03*
X192000000Y-53000000D03*
X192000000Y-55000000D03*
X192000000Y-57000000D03*
X192000000Y-59000000D03*
X194000000Y-51000000D03*
X194000000Y-53000000D03*
X194000000Y-55000000D03*
X194000000Y-57000000D03*
X194000000Y-59000000D03*
X195000000Y-45000000D03*
X195000000Y-47000000D03*
X195000000Y-49000000D03*
X195000000Y-131000000D03*
X196000000Y-34000000D03*
X196000000Y-51000000D03*
X196000000Y-53000000D03*
X196000000Y-55000000D03*
X196000000Y-57000000D03*
X196000000Y-59000000D03*
X196300000Y-74400000D03*
X196999986Y-115499986D03*
X197000000Y-45000000D03*
X197000000Y-47000000D03*
X197000000Y-49000000D03*
X197334207Y-105000000D03*
X197449990Y-75140475D03*
X197500000Y-59000000D03*
X197849990Y-116600000D03*
X198200000Y-104200000D03*
D11*
%TO.C,J2*%
X194000000Y-78000000D03*
X194000000Y-79270000D03*
X194000000Y-80540000D03*
X194000000Y-81810000D03*
X194000000Y-83080000D03*
X194000000Y-84350000D03*
X194000000Y-85620000D03*
X195270000Y-78000000D03*
X195270000Y-79270000D03*
X195270000Y-80540000D03*
X195270000Y-81810000D03*
X195270000Y-83080000D03*
X195270000Y-84350000D03*
X195270000Y-85620000D03*
%TO.C,J3*%
X194000000Y-120000000D03*
X194000000Y-121270000D03*
X194000000Y-122540000D03*
X194000000Y-123810000D03*
X194000000Y-125080000D03*
X194000000Y-126350000D03*
X194000000Y-127620000D03*
X195270000Y-120000000D03*
X195270000Y-121270000D03*
X195270000Y-122540000D03*
X195270000Y-123810000D03*
X195270000Y-125080000D03*
X195270000Y-126350000D03*
X195270000Y-127620000D03*
D12*
%TO.C,JP1*%
X181460000Y-53000000D03*
X184000000Y-53000000D03*
M02*
