M48
; DRILL file {KiCad 5.1.7-a382d34a8~88~ubuntu16.04.1} date Tue Jun 22 15:16:08 2021
; FORMAT={-:-/ absolute / metric / decimal}
; #@! TF.CreationDate,2021-06-22T15:16:08+02:00
; #@! TF.GenerationSoftware,Kicad,Pcbnew,5.1.7-a382d34a8~88~ubuntu16.04.1
; #@! TF.FileFunction,NonPlated,1,4,NPTH
FMAT,2
METRIC
T1C1.400
T2C1.500
%
G90
G05
T1
X110.6Y-110.0
X188.6Y-110.0
X110.6Y-68.0
X188.6Y-68.0
T2
X152.0Y-110.0
X152.0Y-68.0
T0
M30
